<?xml version="1.0" encoding="UTF-8"?>
<!DOCTYPE svg PUBLIC "-//W3C//DTD SVG 1.1//EN" "http://www.w3.org/Graphics/SVG/1.1/DTD/svg11.dtd">
<!-- Creator: CorelDRAW 2018 (64 Bit) -->
<svg xmlns="http://www.w3.org/2000/svg" xml:space="preserve" width="76px" height="80px" version="1.1" style="shape-rendering:geometricPrecision; text-rendering:geometricPrecision; image-rendering:optimizeQuality; fill-rule:evenodd; clip-rule:evenodd"
viewBox="0 0 0.323 0.338"
 xmlns:xlink="http://www.w3.org/1999/xlink">
 <defs>
  <style type="text/css">
   <![CDATA[
    .fil0 {fill:url(#id0)}
   ]]>
  </style>
  <linearGradient id="id0" gradientUnits="userSpaceOnUse" x1="0" y1="0.169" x2="0.323" y2="0.169">
   <stop offset="0" style="stop-opacity:1; stop-color:#76C04E"/>
   <stop offset="1" style="stop-opacity:1; stop-color:#3B72C2"/>
  </linearGradient>
 </defs>
 <g id="Camada_x0020_1">
  <metadata id="CorelCorpID_0Corel-Layer"/>
  <path class="fil0" d="M0.155 0.324l0 -0.074 0.006 0 0 0.075c0,0.003 -0.006,0.005 -0.006,-0.001zm-0.082 -0.085l0 0.013c0,0.007 0.01,0.008 0.01,-0.002 0,-0.008 0.002,-0.016 -0.005,-0.016 -0.003,0 -0.005,0.002 -0.005,0.005zm-0.035 -0.072c0,0.004 0.005,0.005 0.009,0.005l0.028 0c0.004,0 0.007,-0.001 0.008,-0.004 0.001,-0.003 -0.001,-0.007 -0.005,-0.007l-0.034 0c-0.004,0 -0.006,0.002 -0.006,0.006zm0.182 0.023c0,0.003 0,0.006 0.005,0.006l0.056 0c0.007,0 0.005,-0.01 0.001,-0.01l-0.058 0c-0.002,0 -0.004,0.002 -0.004,0.004zm-0.038 0.021c0,0.003 0.001,0.006 0.004,0.006l0.095 0c0.006,0 0.006,-0.009 0,-0.009l-0.095 0c-0.002,0 -0.004,0.002 -0.004,0.003zm-0.115 -0.155c0,-0.004 0,-0.007 0.004,-0.011 0.005,-0.004 0.018,-0.003 0.018,0.009 0,0.014 -0.022,0.013 -0.022,0.002zm-0.01 -0.003c0,0.029 0.042,0.028 0.042,0.001 0,-0.012 -0.01,-0.022 -0.022,-0.022 -0.01,0 -0.02,0.01 -0.02,0.021zm-0.008 0.08l0.04 0 0 0.009 -0.04 0 0 -0.009zm-0.011 -0.005l0 0.019c0,0.004 0.002,0.006 0.006,0.006l0.05 0c0.003,0 0.005,-0.002 0.005,-0.006 0,-0.015 0.003,-0.024 -0.007,-0.024 -0.007,0 -0.047,-0.001 -0.051,0.001 -0.001,0.001 -0.003,0.002 -0.003,0.004zm0.184 0.21l-0.003 0c-0.004,0 -0.007,-0.002 -0.009,-0.005 -0.003,-0.003 -0.003,-0.007 -0.004,-0.011 -0.006,-0.022 -0.012,-0.044 -0.017,-0.067 -0.002,-0.007 -0.003,-0.005 -0.017,-0.005l0 0.073c0,0.01 -0.007,0.015 -0.013,0.015l-0.003 0c-0.006,0 -0.011,-0.004 -0.011,-0.012l0 -0.076 -0.016 0 -0.006 0.025c-0.002,0.008 -0.004,0.015 -0.006,0.023 -0.002,0.007 -0.007,0.031 -0.011,0.036 -0.005,0.006 -0.015,0.005 -0.021,0.001 -0.002,-0.001 -0.004,-0.005 -0.004,-0.008 0,-0.012 0.01,-0.038 0.011,-0.049 -0.005,0.003 -0.012,0.003 -0.017,0.003 -0.015,0 -0.032,-0.016 -0.032,-0.031l-0.022 0c-0.012,0 -0.021,-0.013 -0.021,-0.024l0 -0.153c0,-0.007 0.003,-0.013 0.007,-0.017 0.002,-0.002 0.004,-0.004 0.007,-0.005 0.004,-0.002 0.006,-0.002 0.01,-0.003 0,-0.005 0.001,-0.007 0.005,-0.008 0.002,0 0.008,-0.002 0.011,-0.002 -0.001,-0.002 -0.004,-0.006 -0.005,-0.009 -0.005,-0.007 0.001,-0.01 0.006,-0.015 0.009,-0.009 0.01,-0.006 0.021,0.002 0.002,-0.004 0.001,-0.016 0.007,-0.016l0.017 0c0.006,0 0.007,0.011 0.007,0.016 0.015,-0.008 0.011,-0.012 0.023,0 0.012,0.011 0.007,0.008 0,0.022 0.003,0 0.006,0.001 0.009,0.002 0.007,0.001 0.007,0.003 0.007,0.008l0.13 0c0.002,0 0.002,-0.001 0.003,-0.002l0.003 -0.003c0.002,-0.001 0.004,-0.002 0.008,-0.002l0.033 0c0.007,0 0.014,0.007 0.014,0.015l0 0.03c0,0.008 -0.006,0.016 -0.015,0.016 -0.008,0 -0.011,-0.005 -0.015,-0.011 -0.004,0.003 -0.048,0.048 -0.053,0.053 -0.005,0.005 -0.009,0.009 -0.013,0.013 -0.004,0.004 -0.009,0.012 -0.017,0.009 -0.006,-0.003 -0.02,-0.021 -0.027,-0.026 -0.005,0.004 -0.011,0.011 -0.016,0.016l-0.006 0.006c-0.001,0.001 -0.001,0.001 -0.001,0.001l-0.017 0.017c-0.012,0.011 -0.03,-0.001 -0.024,-0.015 0.001,-0.004 0.003,-0.005 0.005,-0.007 0.004,-0.004 0.008,-0.008 0.012,-0.012 0.003,-0.003 0.008,-0.011 0.013,-0.011 0.002,0 0.004,0.003 0.004,0.006 0,0.004 -0.01,0.013 -0.013,0.016l-0.004 0.003c0,0 0,0 0,0 -0.001,0.001 -0.001,0.001 -0.002,0.002 0,0 0,0 0,0l-0.003 0.003c-0.003,0.003 -0.004,0.009 0.002,0.009 0.003,0 0.005,-0.003 0.007,-0.005l0.03 -0.03c0.008,-0.008 0.012,-0.015 0.023,-0.004 0.006,0.006 0.016,0.015 0.02,0.021 0.005,-0.003 0.019,-0.018 0.024,-0.024l0.047 -0.047c0.003,-0.002 0.01,-0.01 0.013,-0.011 0.003,-0.001 0.006,0.001 0.006,0.004 0.001,0.002 0,0.009 0,0.011 0.002,0.001 0.002,0.002 0.004,0.002 0.002,0 0.005,0 0.005,-0.003l0 -0.033c0,-0.002 -0.002,-0.003 -0.003,-0.003 -0.009,0 -0.029,-0.001 -0.036,0 -0.002,0.007 0,0.008 0.009,0.008 0.003,0 0.007,0.001 0.007,0.004 0,0.004 -0.002,0.007 -0.005,0.009l-0.058 0.058c-0.004,0.004 -0.009,0.011 -0.016,0.007 -0.004,-0.001 -0.024,-0.021 -0.026,-0.025l-0.013 0.012c0,0 -0.001,0.001 -0.001,0.001 0,0 -0.001,0.001 -0.001,0.001 -0.003,0.003 -0.009,0.003 -0.01,-0.002 0,-0.004 0.008,-0.01 0.011,-0.013 0.009,-0.009 0.013,-0.014 0.023,-0.004 0.006,0.006 0.016,0.015 0.021,0.021l0.045 -0.046 -0.136 0c-0.001,0.004 -0.009,0.012 -0.013,0.014 -0.006,0.005 -0.011,-0.004 -0.017,-0.005 0,0.003 -0.001,0.008 -0.002,0.01 -0.002,0.008 -0.013,0.006 -0.02,0.006 -0.009,0 -0.006,-0.011 -0.009,-0.016 -0.006,0.001 -0.011,0.011 -0.017,0.005 -0.003,-0.003 -0.012,-0.01 -0.012,-0.014l-0.022 0 0 0.146c0,0.003 0.002,0.006 0.004,0.008 0.006,0.005 0.02,0.004 0.028,0.004 0,-0.005 0.002,-0.01 0.004,-0.013 0.02,-0.032 0.064,-0.016 0.066,0.013 0.018,0 0.176,0.001 0.182,-0.001 0.005,-0.001 0.009,-0.005 0.01,-0.01 0.002,-0.007 0.001,-0.067 0.001,-0.08 0,-0.01 -0.001,-0.02 0,-0.03 0,-0.005 0.005,-0.007 0.008,-0.004 0.001,0.001 0.002,0.002 0.002,0.004l0 0.108c0,0.006 -0.004,0.012 -0.007,0.015 -0.002,0.003 -0.009,0.007 -0.014,0.007l-0.078 0c0,0.006 0.005,0.019 0.006,0.025 0.002,0.008 0.004,0.016 0.006,0.024 0.002,0.008 0.005,0.016 0.006,0.024 0.002,0.009 -0.005,0.015 -0.013,0.015zm-0.024 -0.088c0.012,0 0.007,-0.002 0.013,0.018 0.002,0.006 0.003,0.013 0.005,0.02 0.001,0.004 0.009,0.035 0.009,0.038 -0.007,0.006 -0.008,0 -0.009,-0.005 -0.002,-0.006 -0.018,-0.067 -0.018,-0.071zm-0.103 0.078c-0.005,0 -0.004,-0.003 -0.003,-0.006 0.001,-0.004 0.001,-0.007 0.002,-0.011l0.011 -0.042c0.001,-0.002 0.003,-0.005 0.005,-0.008 0.001,-0.003 0.003,-0.007 0.003,-0.011l0.005 0c-0.001,0.002 -0.002,0.008 -0.002,0.01l-0.016 0.06c0,0.003 -0.001,0.008 -0.005,0.008zm-0.017 -0.057c-0.013,0 -0.025,-0.011 -0.025,-0.024 0,-0.008 0.001,-0.013 0.007,-0.019 0.015,-0.015 0.043,-0.007 0.043,0.019 0,0.013 -0.012,0.024 -0.025,0.024zm-0.04 -0.198l-0.027 0c0,-0.009 0.005,-0.014 0.013,-0.014 0,0.011 0.008,0.007 0.016,0.01 -0.001,0.003 -0.002,0.001 -0.002,0.004zm0.078 -0.004c0.014,-0.003 0.016,-0.001 0.016,-0.01l0.13 0c0.001,0.003 0.002,0.005 0.003,0.007 0.002,0.001 0.005,0.003 0.007,0.003 0,0.002 -0.001,0.004 -0.003,0.004l-0.15 0c-0.002,0 -0.002,-0.002 -0.003,-0.004zm-0.072 -0.044l0.005 -0.005c0.006,0.002 0.006,0.006 0.014,0.006 0.009,0 0.01,-0.009 0.011,-0.016l0.008 0c0,0.002 0.002,0.01 0.002,0.011 0.002,0.004 0.006,0.005 0.011,0.005 0.002,0 0.006,-0.003 0.011,-0.006l0.005 0.006c-0.001,0.005 -0.006,0.005 -0.006,0.013 0,0.008 0.01,0.01 0.017,0.011l0 0.007c-0.007,0.002 -0.012,0.002 -0.015,0.006 -0.005,0.008 0,0.012 0.005,0.019l-0.006 0.005c-0.006,-0.003 -0.008,-0.006 -0.012,-0.006 -0.01,0 -0.011,0.008 -0.012,0.016l-0.008 0c-0.002,-0.008 -0.001,-0.016 -0.013,-0.016 -0.002,0 -0.009,0.005 -0.011,0.006l-0.006 -0.005c0.002,-0.004 0.007,-0.009 0.007,-0.013 0,-0.01 -0.009,-0.01 -0.017,-0.012l0 -0.007c0.002,0 0.01,-0.002 0.012,-0.003 0.003,-0.001 0.005,-0.006 0.005,-0.011l-0.007 -0.011z"/>
 </g>
</svg>
