<?xml version="1.0" encoding="UTF-8"?>
<!DOCTYPE svg PUBLIC "-//W3C//DTD SVG 1.1//EN" "http://www.w3.org/Graphics/SVG/1.1/DTD/svg11.dtd">
<!-- Creator: CorelDRAW 2018 (64 Bit) -->
<svg xmlns="http://www.w3.org/2000/svg" xml:space="preserve" width="314px" height="45px" version="1.1" style="shape-rendering:geometricPrecision; text-rendering:geometricPrecision; image-rendering:optimizeQuality; fill-rule:evenodd; clip-rule:evenodd"
viewBox="0 0 5.635 0.807"
 xmlns:xlink="http://www.w3.org/1999/xlink">
 <defs>
  <style type="text/css">
   <![CDATA[
    .fil0 {fill:#606062}
    .fil1 {fill:#00986F}
    .fil2 {fill:#606062;fill-rule:nonzero}
    .fil3 {fill:#00986F;fill-rule:nonzero}
   ]]>
  </style>
 </defs>
 <g id="Camada_x0020_1">
  <metadata id="CorelCorpID_0Corel-Layer"/>
  <g id="_3117002672080">
   <g>
    <path class="fil0" d="M0.794 0.052c0.014,-0.018 0.032,-0.031 0.053,-0.039 0.021,-0.009 0.048,-0.013 0.08,-0.013 0.032,0 0.059,0.002 0.08,0.005 0.021,0.003 0.043,0.009 0.068,0.018l-0.013 0.076c-0.055,-0.007 -0.096,-0.01 -0.124,-0.01 -0.001,0 -0.001,0 -0.002,0 0,0 -0.003,0 -0.006,0 -0.004,0 -0.008,0 -0.011,0 -0.003,0.001 -0.007,0.001 -0.013,0.002 -0.006,0.001 -0.01,0.002 -0.013,0.003 -0.003,0.002 -0.007,0.004 -0.011,0.007 -0.005,0.003 -0.009,0.007 -0.011,0.011 -0.003,0.005 -0.006,0.01 -0.01,0.017 -0.004,0.007 -0.007,0.015 -0.009,0.023 -0.003,0.011 -0.006,0.021 -0.009,0.032l-0.101 0c0.004,-0.024 0.01,-0.047 0.017,-0.067 0.009,-0.025 0.02,-0.047 0.035,-0.065z"/>
    <path class="fil0" d="M0.83 0.265c0,0.008 -0.001,0.015 -0.001,0.022 0,0.017 0.002,0.03 0.006,0.039 0.008,0.02 0.027,0.03 0.058,0.031 0.002,0 0.012,0 0.029,0 0.017,0 0.051,-0.002 0.101,-0.005l-0.012 0.076c-0.022,0.008 -0.042,0.013 -0.063,0.015 -0.02,0.002 -0.039,0.003 -0.057,0.003 -0.037,0 -0.073,0.003 -0.106,-0.018 -0.018,-0.012 -0.031,-0.029 -0.039,-0.05 -0.01,-0.026 -0.015,-0.055 -0.015,-0.084 0,-0.01 0,-0.019 0.001,-0.029l0.098 0zm-0.255 -0.26c0.024,0 0.044,0.005 0.061,0.013 0.017,0.009 0.03,0.021 0.039,0.035 0.017,0.027 0.025,0.063 0.025,0.109 0,0.022 -0.002,0.048 -0.007,0.077 -0.015,0.1 -0.045,0.161 -0.092,0.186 -0.023,0.012 -0.052,0.018 -0.087,0.018l-0.19 0 0.028 -0.178 0.097 0 -0.014 0.093 0.076 0c0.023,0 0.041,-0.011 0.055,-0.033 0.013,-0.022 0.023,-0.055 0.03,-0.1 0.004,-0.033 0.007,-0.057 0.007,-0.072 0,-0.016 -0.003,-0.029 -0.007,-0.038 -0.005,-0.009 -0.011,-0.016 -0.018,-0.019 -0.008,-0.004 -0.017,-0.006 -0.029,-0.006l-0.072 0 -0.015 0.094 -0.097 0 0.028 -0.179c0,0 0.061,0 0.182,0zm-0.489 0.015c0.011,-0.006 0.022,-0.01 0.033,-0.012 0.011,-0.002 0.02,-0.003 0.028,-0.003 0.007,0 0.011,0 0.011,0 0.089,0.001 0.15,0.005 0.184,0.009l-0.013 0.082 -0.158 0c-0.02,0 -0.031,0.008 -0.035,0.024 0,0.002 -0.001,0.005 -0.001,0.01l-0.008 0.048 0.159 0.006 -0.013 0.081 -0.161 0.005 -0.008 0.052c-0.002,0.015 0,0.024 0.008,0.027 0.006,0.003 0.014,0.004 0.024,0.004l0.153 0 -0.013 0.081c-0.029,0.004 -0.077,0.007 -0.147,0.009 -0.015,0.001 -0.03,0.001 -0.044,0.001 -0.016,0 -0.031,-0.003 -0.046,-0.01 -0.026,-0.012 -0.039,-0.035 -0.039,-0.067 0,-0.006 0,-0.013 0.001,-0.02l0.04 -0.251c0.006,-0.038 0.021,-0.063 0.045,-0.076z"/>
    <path class="fil1" d="M0.362 0.206l0.236 0c0,0.006 -0.001,0.012 -0.002,0.019 -0.001,0.006 -0.002,0.012 -0.003,0.018l-0.237 0 0.006 -0.037zm0.336 0l0.142 0 -0.006 0.037 -0.141 0c0,-0.001 0,-0.002 0,-0.004 0.002,-0.011 0.003,-0.022 0.005,-0.033z"/>
   </g>
   <path class="fil2" d="M1.106 0.807c-0.012,0 -0.023,-0.002 -0.032,-0.007 -0.009,-0.004 -0.016,-0.01 -0.021,-0.018 -0.005,-0.009 -0.007,-0.018 -0.007,-0.029 0,-0.014 0.003,-0.026 0.01,-0.038 0.006,-0.011 0.015,-0.02 0.027,-0.026 0.011,-0.007 0.025,-0.01 0.04,-0.01 0.012,0 0.023,0.002 0.032,0.007 0.009,0.004 0.016,0.011 0.021,0.019 0.005,0.008 0.007,0.017 0.007,0.028 0,0.014 -0.003,0.027 -0.01,0.038 -0.006,0.011 -0.015,0.02 -0.027,0.026 -0.011,0.007 -0.025,0.01 -0.04,0.01zm0.003 -0.024c0.009,0 0.017,-0.002 0.024,-0.007 0.007,-0.004 0.012,-0.01 0.015,-0.017 0.004,-0.008 0.006,-0.016 0.006,-0.025 0,-0.009 -0.003,-0.017 -0.009,-0.022 -0.006,-0.006 -0.014,-0.009 -0.025,-0.009 -0.009,0 -0.017,0.003 -0.024,0.007 -0.007,0.004 -0.012,0.01 -0.016,0.018 -0.003,0.007 -0.005,0.015 -0.005,0.024 0,0.009 0.003,0.017 0.009,0.022 0.006,0.006 0.014,0.009 0.025,0.009zm0.173 0.024c-0.016,0 -0.028,-0.004 -0.037,-0.011 -0.009,-0.008 -0.013,-0.019 -0.013,-0.032 0,-0.004 0,-0.009 0.001,-0.013l0.014 -0.07 0.029 0 -0.014 0.069c-0.001,0.004 -0.001,0.007 -0.001,0.01 0,0.008 0.002,0.013 0.006,0.017 0.004,0.004 0.01,0.006 0.018,0.006 0.009,0 0.015,-0.003 0.021,-0.008 0.005,-0.005 0.009,-0.014 0.011,-0.025l0.014 -0.069 0.028 0 -0.014 0.071c-0.008,0.037 -0.029,0.055 -0.063,0.055zm0.156 -0.103l-0.04 0 0.005 -0.023 0.108 0 -0.005 0.023 -0.039 0 -0.02 0.101 -0.029 0 0.02 -0.101zm0.138 0.103c-0.01,0 -0.019,-0.001 -0.028,-0.004 -0.009,-0.002 -0.017,-0.006 -0.022,-0.01l0.012 -0.022c0.005,0.004 0.012,0.008 0.019,0.01 0.007,0.002 0.014,0.003 0.022,0.003 0.007,0 0.014,-0.001 0.018,-0.004 0.005,-0.002 0.007,-0.006 0.007,-0.01 0,-0.004 -0.002,-0.007 -0.005,-0.009 -0.004,-0.002 -0.01,-0.004 -0.018,-0.006 -0.008,-0.002 -0.014,-0.005 -0.019,-0.007 -0.006,-0.002 -0.01,-0.005 -0.014,-0.01 -0.003,-0.004 -0.005,-0.01 -0.005,-0.017 0,-0.008 0.002,-0.016 0.007,-0.022 0.004,-0.007 0.011,-0.011 0.02,-0.015 0.008,-0.003 0.018,-0.005 0.029,-0.005 0.009,0 0.017,0.001 0.024,0.003 0.008,0.002 0.014,0.004 0.019,0.008l-0.011 0.022c-0.004,-0.004 -0.009,-0.006 -0.015,-0.008 -0.006,-0.001 -0.012,-0.002 -0.018,-0.002 -0.008,0 -0.015,0.001 -0.019,0.004 -0.005,0.003 -0.008,0.007 -0.008,0.011 0,0.003 0.001,0.005 0.003,0.007 0.002,0.002 0.005,0.003 0.008,0.004 0.003,0.002 0.007,0.003 0.013,0.004 0.008,0.003 0.014,0.005 0.019,0.007 0.006,0.002 0.01,0.005 0.013,0.009 0.004,0.005 0.006,0.01 0.006,0.017 0,0.009 -0.002,0.016 -0.007,0.022 -0.005,0.007 -0.012,0.011 -0.02,0.015 -0.009,0.003 -0.019,0.005 -0.03,0.005zm0.165 0c-0.012,0 -0.023,-0.002 -0.032,-0.007 -0.009,-0.004 -0.016,-0.01 -0.021,-0.018 -0.005,-0.009 -0.007,-0.018 -0.007,-0.029 0,-0.014 0.003,-0.026 0.01,-0.038 0.006,-0.011 0.015,-0.02 0.027,-0.026 0.011,-0.007 0.025,-0.01 0.04,-0.01 0.012,0 0.023,0.002 0.032,0.007 0.009,0.004 0.016,0.011 0.021,0.019 0.005,0.008 0.007,0.017 0.007,0.028 0,0.014 -0.003,0.027 -0.01,0.038 -0.006,0.011 -0.015,0.02 -0.027,0.026 -0.011,0.007 -0.025,0.01 -0.04,0.01zm0.003 -0.024c0.009,0 0.017,-0.002 0.024,-0.007 0.007,-0.004 0.012,-0.01 0.016,-0.017 0.003,-0.008 0.005,-0.016 0.005,-0.025 0,-0.009 -0.003,-0.017 -0.009,-0.022 -0.006,-0.006 -0.014,-0.009 -0.025,-0.009 -0.009,0 -0.017,0.003 -0.024,0.007 -0.007,0.004 -0.012,0.01 -0.015,0.018 -0.004,0.007 -0.006,0.015 -0.006,0.024 0,0.009 0.003,0.017 0.009,0.022 0.006,0.006 0.014,0.009 0.025,0.009zm0.173 0.024c-0.016,0 -0.028,-0.004 -0.037,-0.011 -0.009,-0.008 -0.013,-0.019 -0.013,-0.032 0,-0.004 0,-0.009 0.001,-0.013l0.014 -0.07 0.029 0 -0.014 0.069c-0.001,0.004 -0.001,0.007 -0.001,0.01 0,0.008 0.002,0.013 0.006,0.017 0.004,0.004 0.01,0.006 0.018,0.006 0.009,0 0.016,-0.003 0.021,-0.008 0.005,-0.005 0.009,-0.014 0.011,-0.025l0.014 -0.069 0.028 0 -0.014 0.071c-0.007,0.037 -0.029,0.055 -0.063,0.055zm0.236 -0.087c0,0.011 -0.003,0.021 -0.009,0.029 -0.006,0.009 -0.015,0.014 -0.026,0.018l0.021 0.038 -0.03 0 -0.019 -0.035 -0.025 0 -0.007 0.035 -0.028 0 0.024 -0.124 0.051 0c0.015,0 0.027,0.003 0.036,0.01 0.008,0.007 0.012,0.016 0.012,0.029zm-0.059 0.028c0.01,0 0.017,-0.003 0.022,-0.007 0.006,-0.004 0.008,-0.011 0.008,-0.019 0,-0.006 -0.002,-0.01 -0.006,-0.013 -0.004,-0.003 -0.01,-0.005 -0.017,-0.005l-0.023 0 -0.008 0.044 0.024 0zm0.163 0.059c-0.013,0 -0.024,-0.002 -0.033,-0.007 -0.009,-0.004 -0.016,-0.01 -0.021,-0.018 -0.005,-0.009 -0.008,-0.018 -0.008,-0.029 0,-0.014 0.003,-0.026 0.01,-0.038 0.006,-0.011 0.015,-0.02 0.027,-0.026 0.012,-0.007 0.025,-0.01 0.04,-0.01 0.011,0 0.021,0.002 0.03,0.006 0.008,0.003 0.015,0.009 0.019,0.016l-0.021 0.017c-0.006,-0.01 -0.016,-0.015 -0.03,-0.015 -0.009,0 -0.017,0.003 -0.024,0.007 -0.007,0.004 -0.012,0.01 -0.016,0.017 -0.004,0.007 -0.006,0.016 -0.006,0.025 0,0.009 0.003,0.017 0.009,0.022 0.006,0.006 0.015,0.009 0.026,0.009 0.013,0 0.024,-0.005 0.033,-0.015l0.017 0.018c-0.012,0.014 -0.03,0.021 -0.052,0.021zm0.121 -0.126l0.028 0 -0.024 0.124 -0.029 0 0.025 -0.124zm0.203 0l-0.025 0.124 -0.023 0 -0.046 -0.077 -0.016 0.077 -0.028 0 0.024 -0.124 0.024 0 0.046 0.078 0.016 -0.078 0.028 0zm0.133 0.06l0.026 0 -0.01 0.051c-0.006,0.005 -0.014,0.009 -0.022,0.011 -0.008,0.003 -0.017,0.004 -0.025,0.004 -0.013,0 -0.024,-0.002 -0.033,-0.007 -0.009,-0.004 -0.016,-0.01 -0.021,-0.018 -0.005,-0.009 -0.008,-0.018 -0.008,-0.029 0,-0.014 0.003,-0.026 0.01,-0.038 0.006,-0.011 0.016,-0.02 0.027,-0.026 0.012,-0.007 0.026,-0.01 0.041,-0.01 0.012,0 0.022,0.002 0.031,0.005 0.009,0.004 0.016,0.009 0.021,0.017l-0.021 0.016c-0.004,-0.005 -0.008,-0.008 -0.014,-0.01 -0.005,-0.002 -0.011,-0.004 -0.018,-0.004 -0.01,0 -0.018,0.003 -0.025,0.007 -0.007,0.004 -0.013,0.01 -0.017,0.017 -0.004,0.007 -0.006,0.015 -0.006,0.025 0,0.009 0.003,0.017 0.01,0.022 0.006,0.006 0.015,0.009 0.026,0.009 0.008,0 0.014,-0.002 0.021,-0.005l0.007 -0.037zm0.221 -0.037l-0.006 0.027 0.058 0 -0.005 0.022 -0.057 0 -0.006 0.029 0.068 0 -0.005 0.023 -0.096 0 0.025 -0.124 0.093 0 -0.004 0.023 -0.065 0zm0.145 0.103c-0.01,0 -0.02,-0.001 -0.029,-0.004 -0.009,-0.002 -0.016,-0.006 -0.021,-0.01l0.011 -0.022c0.006,0.004 0.012,0.008 0.02,0.01 0.007,0.002 0.014,0.003 0.021,0.003 0.008,0 0.015,-0.001 0.019,-0.004 0.005,-0.002 0.007,-0.006 0.007,-0.01 0,-0.004 -0.002,-0.007 -0.005,-0.009 -0.004,-0.002 -0.01,-0.004 -0.018,-0.006 -0.008,-0.002 -0.015,-0.005 -0.02,-0.007 -0.005,-0.002 -0.009,-0.005 -0.013,-0.01 -0.004,-0.004 -0.005,-0.01 -0.005,-0.017 0,-0.008 0.002,-0.016 0.007,-0.022 0.004,-0.007 0.011,-0.011 0.019,-0.015 0.009,-0.003 0.019,-0.005 0.03,-0.005 0.009,0 0.017,0.001 0.024,0.003 0.007,0.002 0.014,0.004 0.019,0.008l-0.011 0.022c-0.004,-0.004 -0.009,-0.006 -0.015,-0.008 -0.006,-0.001 -0.012,-0.002 -0.018,-0.002 -0.008,0 -0.015,0.001 -0.02,0.004 -0.004,0.003 -0.007,0.007 -0.007,0.011 0,0.003 0.001,0.005 0.003,0.007 0.002,0.002 0.005,0.003 0.008,0.004 0.003,0.002 0.007,0.003 0.013,0.004 0.008,0.003 0.014,0.005 0.019,0.007 0.005,0.002 0.01,0.005 0.013,0.009 0.004,0.005 0.006,0.01 0.006,0.017 0,0.009 -0.003,0.016 -0.007,0.022 -0.005,0.007 -0.012,0.011 -0.02,0.015 -0.009,0.003 -0.019,0.005 -0.03,0.005zm0.176 -0.126c0.015,0 0.027,0.003 0.036,0.01 0.008,0.007 0.012,0.017 0.012,0.029 0,0.01 -0.002,0.019 -0.007,0.027 -0.005,0.008 -0.012,0.014 -0.021,0.018 -0.009,0.004 -0.02,0.006 -0.032,0.006l-0.027 0 -0.007 0.034 -0.029 0 0.025 -0.124 0.05 0zm-0.011 0.067c0.01,0 0.017,-0.003 0.023,-0.007 0.005,-0.004 0.007,-0.011 0.007,-0.019 0,-0.006 -0.002,-0.01 -0.006,-0.013 -0.004,-0.003 -0.009,-0.005 -0.017,-0.005l-0.022 0 -0.009 0.044 0.024 0zm0.144 -0.044l-0.005 0.027 0.057 0 -0.004 0.022 -0.058 0 -0.005 0.029 0.067 0 -0.004 0.023 -0.096 0 0.024 -0.124 0.094 0 -0.005 0.023 -0.065 0zm0.167 0.103c-0.013,0 -0.023,-0.002 -0.033,-0.007 -0.009,-0.004 -0.016,-0.01 -0.021,-0.018 -0.005,-0.009 -0.007,-0.018 -0.007,-0.029 0,-0.014 0.003,-0.026 0.009,-0.038 0.007,-0.011 0.016,-0.02 0.027,-0.026 0.012,-0.007 0.025,-0.01 0.041,-0.01 0.011,0 0.02,0.002 0.029,0.006 0.008,0.003 0.015,0.009 0.019,0.016l-0.02 0.017c-0.007,-0.01 -0.017,-0.015 -0.03,-0.015 -0.009,0 -0.017,0.003 -0.024,0.007 -0.007,0.004 -0.013,0.01 -0.017,0.017 -0.003,0.007 -0.005,0.016 -0.005,0.025 0,0.009 0.003,0.017 0.009,0.022 0.006,0.006 0.014,0.009 0.025,0.009 0.013,0 0.024,-0.005 0.033,-0.015l0.017 0.018c-0.012,0.014 -0.03,0.021 -0.052,0.021zm0.121 -0.126l0.029 0 -0.025 0.124 -0.029 0 0.025 -0.124zm0.153 0.098l-0.058 0 -0.016 0.026 -0.03 0 0.08 -0.124 0.028 0 0.031 0.124 -0.029 0 -0.006 -0.026zm-0.005 -0.022l-0.01 -0.048 -0.029 0.048 0.039 0zm0.109 -0.076l0.029 0 -0.02 0.101 0.062 0 -0.005 0.023 -0.091 0 0.025 -0.124zm0.139 0l0.029 0 -0.025 0.124 -0.029 0 0.025 -0.124zm0.184 0.019l-0.084 0.082 0.07 0 -0.005 0.023 -0.109 0 0.004 -0.019 0.084 -0.082 -0.066 0 0.005 -0.023 0.104 0 -0.003 0.019zm0.119 0.079l-0.057 0 -0.017 0.026 -0.03 0 0.08 -0.124 0.028 0 0.031 0.124 -0.029 0 -0.006 -0.026zm-0.004 -0.022l-0.011 -0.048 -0.029 0.048 0.04 0zm0.108 -0.076l0.052 0c0.013,0 0.024,0.002 0.033,0.006 0.009,0.005 0.016,0.011 0.021,0.018 0.005,0.008 0.007,0.017 0.007,0.028 0,0.014 -0.003,0.027 -0.009,0.038 -0.007,0.011 -0.016,0.019 -0.028,0.025 -0.011,0.006 -0.025,0.009 -0.04,0.009l-0.061 0 0.025 -0.124zm0.037 0.101c0.01,0 0.018,-0.003 0.025,-0.007 0.007,-0.004 0.013,-0.009 0.017,-0.016 0.003,-0.008 0.005,-0.016 0.005,-0.025 0,-0.009 -0.003,-0.016 -0.009,-0.021 -0.006,-0.006 -0.015,-0.008 -0.026,-0.008l-0.025 0 -0.015 0.077 0.028 0zm0.181 0.025c-0.013,0 -0.023,-0.002 -0.033,-0.007 -0.009,-0.004 -0.016,-0.01 -0.02,-0.018 -0.005,-0.009 -0.008,-0.018 -0.008,-0.029 0,-0.014 0.004,-0.026 0.01,-0.038 0.006,-0.011 0.015,-0.02 0.027,-0.026 0.012,-0.007 0.025,-0.01 0.04,-0.01 0.012,0 0.023,0.002 0.032,0.007 0.009,0.004 0.016,0.011 0.021,0.019 0.005,0.008 0.007,0.017 0.007,0.028 0,0.014 -0.003,0.027 -0.009,0.038 -0.007,0.011 -0.016,0.02 -0.027,0.026 -0.012,0.007 -0.025,0.01 -0.04,0.01zm0.002 -0.024c0.009,0 0.017,-0.002 0.024,-0.007 0.007,-0.004 0.012,-0.01 0.016,-0.017 0.004,-0.008 0.005,-0.016 0.005,-0.025 0,-0.009 -0.003,-0.017 -0.009,-0.022 -0.005,-0.006 -0.014,-0.009 -0.024,-0.009 -0.01,0 -0.018,0.003 -0.024,0.007 -0.007,0.004 -0.012,0.01 -0.016,0.018 -0.004,0.007 -0.006,0.015 -0.006,0.024 0,0.009 0.003,0.017 0.009,0.022 0.006,0.006 0.014,0.009 0.025,0.009zm0.264 -0.079l-0.006 0.027 0.058 0 -0.005 0.022 -0.057 0 -0.006 0.029 0.068 0 -0.005 0.023 -0.096 0 0.025 -0.124 0.093 0 -0.005 0.023 -0.064 0zm0.306 0.037c0.005,0.002 0.009,0.005 0.012,0.01 0.003,0.004 0.004,0.009 0.004,0.015 0,0.013 -0.005,0.023 -0.015,0.029 -0.01,0.007 -0.024,0.01 -0.04,0.01l-0.065 0 0.024 -0.124 0.06 0c0.014,0 0.024,0.003 0.031,0.007 0.007,0.005 0.011,0.012 0.011,0.021 0,0.008 -0.002,0.014 -0.006,0.02 -0.004,0.005 -0.009,0.009 -0.016,0.012zm-0.056 -0.038l-0.005 0.029 0.029 0c0.007,0 0.013,-0.002 0.017,-0.005 0.005,-0.003 0.007,-0.007 0.007,-0.013 0,-0.007 -0.006,-0.011 -0.019,-0.011l-0.029 0zm0.018 0.08c0.008,0 0.015,-0.001 0.019,-0.004 0.005,-0.003 0.007,-0.008 0.007,-0.013 0,-0.009 -0.006,-0.013 -0.019,-0.013l-0.034 0 -0.007 0.03 0.034 0zm0.176 -0.102c0.015,0 0.027,0.003 0.035,0.01 0.009,0.007 0.013,0.017 0.013,0.029 0,0.01 -0.002,0.019 -0.007,0.027 -0.005,0.008 -0.012,0.014 -0.021,0.018 -0.009,0.004 -0.02,0.006 -0.032,0.006l-0.028 0 -0.006 0.034 -0.029 0 0.024 -0.124 0.051 0zm-0.011 0.067c0.01,0 0.017,-0.003 0.022,-0.007 0.005,-0.004 0.008,-0.011 0.008,-0.019 0,-0.006 -0.002,-0.01 -0.006,-0.013 -0.004,-0.003 -0.009,-0.005 -0.017,-0.005l-0.022 0 -0.009 0.044 0.024 0zm0.161 0.059c-0.012,0 -0.023,-0.002 -0.032,-0.007 -0.009,-0.004 -0.016,-0.01 -0.021,-0.018 -0.005,-0.009 -0.007,-0.018 -0.007,-0.029 0,-0.014 0.003,-0.026 0.01,-0.038 0.006,-0.011 0.015,-0.02 0.027,-0.026 0.011,-0.007 0.025,-0.01 0.04,-0.01 0.012,0 0.023,0.002 0.032,0.007 0.009,0.004 0.016,0.011 0.021,0.019 0.005,0.008 0.007,0.017 0.007,0.028 0,0.014 -0.003,0.027 -0.01,0.038 -0.006,0.011 -0.015,0.02 -0.027,0.026 -0.011,0.007 -0.025,0.01 -0.04,0.01zm0.003 -0.024c0.009,0 0.017,-0.002 0.024,-0.007 0.007,-0.004 0.012,-0.01 0.015,-0.017 0.004,-0.008 0.006,-0.016 0.006,-0.025 0,-0.009 -0.003,-0.017 -0.009,-0.022 -0.006,-0.006 -0.014,-0.009 -0.025,-0.009 -0.009,0 -0.017,0.003 -0.024,0.007 -0.007,0.004 -0.012,0.01 -0.016,0.018 -0.003,0.007 -0.005,0.015 -0.005,0.024 0,0.009 0.003,0.017 0.009,0.022 0.006,0.006 0.014,0.009 0.025,0.009z"/>
   <path class="fil3" d="M5.001 0.136c0,0.043 -0.012,0.079 -0.035,0.107 -0.023,0.028 -0.055,0.047 -0.097,0.056l0.081 0.144 -0.049 0 -0.077 -0.137c-0.004,0.001 -0.012,0.001 -0.022,0.001l-0.122 0 -0.027 0.136 -0.045 0 0.086 -0.429 0.154 0c0.048,0 0.086,0.011 0.113,0.032 0.026,0.021 0.04,0.051 0.04,0.09zm-2.527 -0.085c-0.042,0 -0.08,0.01 -0.113,0.029 -0.032,0.019 -0.057,0.045 -0.075,0.078 -0.018,0.032 -0.027,0.068 -0.027,0.108 0,0.043 0.014,0.077 0.042,0.102 0.027,0.025 0.067,0.038 0.119,0.038 0.041,0 0.077,-0.011 0.109,-0.034l0.029 -0.144 0 0 0.004 -0.019 0.454 0 -0.006 0.039 -0.413 0 -0.029 0.145c-0.02,0.017 -0.043,0.03 -0.07,0.039 -0.027,0.009 -0.054,0.014 -0.083,0.014 -0.042,0 -0.077,-0.007 -0.107,-0.022 -0.031,-0.015 -0.054,-0.035 -0.07,-0.062 -0.015,-0.027 -0.023,-0.058 -0.023,-0.094 0,-0.047 0.01,-0.09 0.032,-0.129 0.021,-0.04 0.052,-0.071 0.091,-0.094 0.04,-0.023 0.086,-0.034 0.138,-0.034 0.036,0 0.067,0.005 0.094,0.016 0.027,0.011 0.049,0.026 0.065,0.046l-0.032 0.028c-0.015,-0.017 -0.033,-0.03 -0.054,-0.038 -0.021,-0.008 -0.046,-0.012 -0.075,-0.012zm0.35 0.003l-0.023 0.116 -0.044 0 0.031 -0.156 0.293 0 -0.008 0.04 -0.249 0zm-0.046 0.233l-0.023 0.116 0.257 0 -0.008 0.04 -0.302 0 0.031 -0.156 0.045 0zm2.783 0.041l-0.24 0 -0.074 0.115 -0.048 0 0.281 -0.429 0.045 0 0.11 0.429 -0.046 0 -0.028 -0.115zm-0.009 -0.037l-0.058 -0.231 -0.149 0.231 0.207 0zm-0.4 -0.277l0.045 0 -0.086 0.429 -0.045 0 0.086 -0.429zm-0.705 0.314l-0.239 0 -0.074 0.115 -0.049 0 0.282 -0.429 0.044 0 0.11 0.429 -0.045 0 -0.029 -0.115zm-0.008 -0.037l-0.058 -0.231 -0.15 0.231 0.208 0zm-0.356 -0.277l-0.085 0.429 -0.045 0 0.039 -0.197 -0.268 0 -0.039 0.197 -0.045 0 0.086 -0.429 0.045 0 -0.038 0.191 0.268 0 0.038 -0.191 0.044 0zm-0.513 0l-0.086 0.429 -0.036 0 -0.205 -0.355 -0.071 0.355 -0.045 0 0.086 -0.429 0.037 0 0.204 0.355 0.071 -0.355 0.045 0zm-1.427 0l-0.086 0.429 -0.036 0 -0.205 -0.355 -0.071 0.355 -0.045 0 0.086 -0.429 0.037 0 0.204 0.355 0.071 -0.355 0.045 0zm-0.746 0.04l-0.03 0.152 0.222 0 -0.008 0.038 -0.222 0 -0.031 0.159 0.257 0 -0.008 0.04 -0.302 0 0.086 -0.429 0.293 0 -0.008 0.04 -0.249 0zm3.406 0.214c0.049,0 0.087,-0.011 0.113,-0.033 0.026,-0.021 0.04,-0.053 0.04,-0.095 0,-0.028 -0.01,-0.05 -0.029,-0.064 -0.019,-0.015 -0.047,-0.022 -0.082,-0.022l-0.114 0 -0.043 0.214 0.115 0z"/>
  </g>
 </g>
</svg>
